1x Relay 			- 3	http://www.ebay.com.au/itm/121850566213
2x DC-DC			- 5	http://www.ebay.com.au/itm/141806544502
1x Pi				- 56 http://www.ebay.com.au/itm/322088386534
1x Micro SD			- 8	http://www.ebay.com.au/itm/171424975700
1x RTC				- 2	http://www.ebay.com.au/itm/162006652468
1x CASE (158x90x60)	- 6	http://www.ebay.com.au/itm/181903351311

1x Connector (2p)	- 6	http://www.ebay.com.au/itm/331651395133
2x Connector (4p)	- 2	http://www.ebay.com.au/itm/121337712187

Total = $88